%!PS-Adobe-3.0 EPSF-3.0
%%DocumentNeededResources: font Helvetica
%%+ font Helvetica-Bold
%%+ font Helvetica-Oblique
%%+ font Helvetica-BoldOblique
%%+ font Symbol
%%Title: R Graphics Output
%%Creator: R Software
%%Pages: (atend)
%%BoundingBox: 0 0 397 567
%%EndComments
%%BeginProlog
/bp  { gs sRGB gs } def
% begin .ps.prolog
/gs  { gsave } bind def
/gr  { grestore } bind def
/ep  { showpage gr gr } bind def
/m   { moveto } bind def
/l  { rlineto } bind def
/np  { newpath } bind def
/cp  { closepath } bind def
/f   { fill } bind def
/o   { stroke } bind def
/c   { newpath 0 360 arc } bind def
/r   { 4 2 roll moveto 1 copy 3 -1 roll exch 0 exch rlineto 0 rlineto -1 mul 0 exch rlineto closepath } bind def
/p1  { stroke } bind def
/p2  { gsave bg fill grestore newpath } bind def
/p3  { gsave bg fill grestore stroke } bind def
/p6  { gsave bg eofill grestore newpath } bind def
/p7  { gsave bg eofill grestore stroke } bind def
/t   { 5 -2 roll moveto gsave rotate
       1 index stringwidth pop
       mul neg 0 rmoveto show grestore } bind def
/ta  { 4 -2 roll moveto gsave rotate show } bind def
/tb  { 2 -1 roll 0 rmoveto show } bind def
/cl  { grestore gsave newpath 3 index 3 index moveto 1 index
       4 -1 roll lineto  exch 1 index lineto lineto
       closepath clip newpath } bind def
/rgb { setrgbcolor } bind def
/s   { scalefont setfont } bind def
% end   .ps.prolog
/sRGB { [ /CIEBasedABC
          << /DecodeLMN
               [ { dup 0.03928 le
                        {12.92321 div}
                        {0.055 add 1.055 div 2.4 exp }
                     ifelse
                 } bind dup dup
               ]
             /MatrixLMN [0.412457 0.212673 0.019334
                         0.357576 0.715152 0.119192
                         0.180437 0.072175 0.950301]
             /WhitePoint [0.9505 1.0 1.0890]
           >>
         ] setcolorspace } bind def
/srgb { setcolor } bind def
% begin encoding
/WinAnsiEncoding [
 /.notdef /.notdef /.notdef /.notdef /.notdef /.notdef /.notdef /.notdef
 /.notdef /.notdef /.notdef /.notdef /.notdef /.notdef /.notdef /.notdef
 /.notdef /.notdef /.notdef /.notdef /.notdef /.notdef /.notdef /.notdef
 /.notdef /.notdef /.notdef /.notdef /.notdef /.notdef /.notdef /.notdef
 /space /exclam /quotedbl /numbersign /dollar /percent /ampersand /quoteright
 /parenleft /parenright /asterisk /plus /comma /minus /period /slash
 /zero /one /two /three /four /five /six /seven
 /eight /nine /colon /semicolon /less /equal /greater /question
 /at /A /B /C /D /E /F /G
 /H /I /J /K /L /M /N /O
 /P /Q /R /S /T /U /V /W
 /X /Y /Z /bracketleft /backslash /bracketright /asciicircum /underscore
 /grave /a /b /c /d /e /f /g
 /h /i /j /k /l /m /n /o
 /p /q /r /s /t /u /v /w
 /x /y /z /braceleft /bar /braceright /asciitilde /.notdef
 /Euro /.notdef /quotesinglbase /florin /quotedblbase /ellipsis /dagger /daggerdbl
 /circumflex /perthousand /Scaron /guilsinglleft /OE /.notdef /Zcaron /.notdef
 /.notdef /quoteleft /quoteright /quotedblleft /quotedblright /bullet /endash /emdash
 /tilde /trademark /scaron /guilsinglright /oe /.notdef /zcaron /Ydieresis
 /space /exclamdown /cent /sterling /currency /yen /brokenbar /section
 /dieresis /copyright /ordfeminine /guillemotleft /logicalnot /hyphen /registered /macron
 /degree /plusminus /twosuperior /threesuperior /acute /mu /paragraph /periodcentered
 /cedilla /onesuperior /ordmasculine /guillemotright /onequarter /onehalf /threequarters /questiondown
 /Agrave /Aacute /Acircumflex /Atilde /Adieresis /Aring /AE /Ccedilla
 /Egrave /Eacute /Ecircumflex /Edieresis /Igrave /Iacute /Icircumflex /Idieresis
 /Eth /Ntilde /Ograve /Oacute /Ocircumflex /Otilde /Odieresis /multiply
 /Oslash /Ugrave /Uacute /Ucircumflex /Udieresis /Yacute /Thorn /germandbls
 /agrave /aacute /acircumflex /atilde /adieresis /aring /ae /ccedilla
 /egrave /eacute /ecircumflex /edieresis /igrave /iacute /icircumflex /idieresis
 /eth /ntilde /ograve /oacute /ocircumflex /otilde /odieresis /divide
 /oslash /ugrave /uacute /ucircumflex /udieresis /yacute /thorn /ydieresis
]
 def
% end encoding
%%IncludeResource: font Helvetica
/Helvetica findfont
dup length dict begin
  {1 index /FID ne {def} {pop pop} ifelse} forall
  /Encoding WinAnsiEncoding def
  currentdict
  end
/Font1 exch definefont pop
%%IncludeResource: font Helvetica-Bold
/Helvetica-Bold findfont
dup length dict begin
  {1 index /FID ne {def} {pop pop} ifelse} forall
  /Encoding WinAnsiEncoding def
  currentdict
  end
/Font2 exch definefont pop
%%IncludeResource: font Helvetica-Oblique
/Helvetica-Oblique findfont
dup length dict begin
  {1 index /FID ne {def} {pop pop} ifelse} forall
  /Encoding WinAnsiEncoding def
  currentdict
  end
/Font3 exch definefont pop
%%IncludeResource: font Helvetica-BoldOblique
/Helvetica-BoldOblique findfont
dup length dict begin
  {1 index /FID ne {def} {pop pop} ifelse} forall
  /Encoding WinAnsiEncoding def
  currentdict
  end
/Font4 exch definefont pop
%%IncludeResource: font Symbol
/Symbol findfont
dup length dict begin
  {1 index /FID ne {def} {pop pop} ifelse} forall
  currentdict
  end
/Font5 exch definefont pop
%%EndProlog
%%Page: 1 1
bp
0.00 0.00 396.85 566.93 cl
0.00 0.00 396.85 566.93 cl
0.00 0.00 396.85 566.93 cl
0.00 0.00 396.85 566.93 cl
0.00 0.00 396.85 566.93 cl
0.00 0.00 396.85 566.93 cl
0.00 0.00 396.85 566.93 cl
0.00 0.00 396.85 566.93 cl
0.00 0.00 396.85 566.93 cl
0.00 0.00 396.85 566.93 cl
0.00 0.00 396.85 566.93 cl
0.00 0.00 396.85 566.93 cl
0.00 283.46 396.85 566.93 cl
/bg { 1 1 1 srgb } def
1 1 1 srgb
1.07 setlinewidth
[] 0 setdash
1 setlinecap
1 setlinejoin
10.00 setmiterlimit
0.00 283.46 396.85 283.46 r p3
0.00 0.00 396.85 566.93 cl
46.48 334.38 391.37 561.45 cl
/bg { 1 1 1 srgb } def
46.48 334.38 344.89 227.07 r p2
0.9216 0.9216 0.9216 srgb
0.53 setlinewidth
[] 0 setdash
0 setlinecap
1 setlinejoin
10.00 setmiterlimit
np
46.48 339.32 m
344.89 0 l
o
np
46.48 388.15 m
344.89 0 l
o
np
46.48 436.98 m
344.89 0 l
o
np
46.48 485.82 m
344.89 0 l
o
np
46.48 534.65 m
344.89 0 l
o
1.07 setlinewidth
[] 0 setdash
np
46.48 363.73 m
344.89 0 l
o
np
46.48 412.57 m
344.89 0 l
o
np
46.48 461.40 m
344.89 0 l
o
np
46.48 510.23 m
344.89 0 l
o
np
46.48 559.07 m
344.89 0 l
o
np
95.75 334.38 m
0 227.07 l
o
np
177.87 334.38 m
0 227.07 l
o
np
259.98 334.38 m
0 227.07 l
o
np
342.10 334.38 m
0 227.07 l
o
/bg { 0 0 0 srgb } def
0 0 0 srgb
0.71 setlinewidth
[] 0 setdash
1 setlinecap
340.69 494.69 1.95 c p3
175.37 508.20 1.95 c p3
177.07 475.33 1.95 c p3
175.69 344.70 1.95 c p3
179.29 432.73 1.95 c p3
259.70 476.88 1.95 c p3
256.94 550.94 1.95 c p3
180.24 404.78 1.95 c p3
180.25 362.72 1.95 c p3
258.72 480.37 1.95 c p3
259.87 421.20 1.95 c p3
181.00 450.40 1.95 c p3
340.48 547.13 1.95 c p3
94.89 393.94 1.95 c p3
344.98 436.43 1.95 c p3
94.49 398.10 1.95 c p3
0.2000 0.2000 0.2000 srgb
1.07 setlinewidth
[] 0 setdash
0 setlinecap
np
95.75 397.10 m
0 1.17 l
o
np
95.75 394.77 m
0 -1.17 l
o
1 setlinecap
np
 64.96 397.10 m
0 -2.33 l
61.59 0 l
0 2.33 l
-61.59 0 l
cp p1
2.13 setlinewidth
[] 0 setdash
0 setlinecap
np
64.96 395.94 m
61.59 0 l
o
1.07 setlinewidth
[] 0 setdash
np
177.87 462.77 m
0 45.19 l
o
np
177.87 383.83 m
0 -38.66 l
o
1 setlinecap
np
 147.07 462.77 m
0 -78.94 l
61.59 0 l
0 78.94 l
-61.59 0 l
cp p1
2.13 setlinewidth
[] 0 setdash
0 setlinecap
np
147.07 432.91 m
61.59 0 l
o
1.07 setlinewidth
[] 0 setdash
np
259.98 498.01 m
0 0 l
o
np
259.98 463.07 m
0 -41.84 l
o
1 setlinecap
np
 229.19 498.01 m
0 -34.94 l
61.59 0 l
0 34.94 l
-61.59 0 l
cp p1
2.13 setlinewidth
[] 0 setdash
0 setlinecap
np
229.19 478.66 m
61.59 0 l
o
1.07 setlinewidth
[] 0 setdash
np
342.10 521.23 m
0 26.21 l
o
np
342.10 465.52 m
0 -29.51 l
o
1 setlinecap
np
 311.31 521.23 m
0 -55.71 l
61.58 0 l
0 55.71 l
-61.58 0 l
cp p1
2.13 setlinewidth
[] 0 setdash
0 setlinecap
np
311.31 495.02 m
61.58 0 l
o
1.07 setlinewidth
[] 0 setdash
1 setlinecap
46.48 334.38 344.89 227.07 r p1
0.00 0.00 396.85 566.93 cl
0.00 0.00 396.85 566.93 cl
0.00 0.00 396.85 566.93 cl
0.00 0.00 396.85 566.93 cl
0.00 0.00 396.85 566.93 cl
0.00 0.00 396.85 566.93 cl
0.00 0.00 396.85 566.93 cl
0.00 0.00 396.85 566.93 cl
0.00 0.00 396.85 566.93 cl
0.00 0.00 396.85 566.93 cl
0.00 0.00 396.85 566.93 cl
0.00 0.00 396.85 566.93 cl
0.00 0.00 396.85 566.93 cl
0.00 0.00 396.85 566.93 cl
0.00 0.00 396.85 566.93 cl
0.00 0.00 396.85 566.93 cl
/Font1 findfont 9 s
0.3020 0.3020 0.3020 srgb
41.55 360.50 (20%) 1 0 t
41.55 409.34 (40%) 1 0 t
41.55 458.17 (60%) 1 0 t
41.55 507.00 (80%) 1 0 t
41.55 555.84 (100%) 1 0 t
0.00 0.00 396.85 566.93 cl
0.00 0.00 396.85 566.93 cl
0.2000 0.2000 0.2000 srgb
1.07 setlinewidth
[] 0 setdash
0 setlinecap
1 setlinejoin
10.00 setmiterlimit
np
43.74 363.73 m
2.74 0 l
o
np
43.74 412.57 m
2.74 0 l
o
np
43.74 461.40 m
2.74 0 l
o
np
43.74 510.23 m
2.74 0 l
o
np
43.74 559.07 m
2.74 0 l
o
0.00 0.00 396.85 566.93 cl
0.00 0.00 396.85 566.93 cl
0.00 0.00 396.85 566.93 cl
0.00 0.00 396.85 566.93 cl
0.00 0.00 396.85 566.93 cl
0.00 0.00 396.85 566.93 cl
0.00 0.00 396.85 566.93 cl
0.00 0.00 396.85 566.93 cl
0.00 0.00 396.85 566.93 cl
0.00 0.00 396.85 566.93 cl
0.2000 0.2000 0.2000 srgb
1.07 setlinewidth
[] 0 setdash
0 setlinecap
1 setlinejoin
10.00 setmiterlimit
np
95.75 331.64 m
0 2.74 l
o
np
177.87 331.64 m
0 2.74 l
o
np
259.98 331.64 m
0 2.74 l
o
np
342.10 331.64 m
0 2.74 l
o
0.00 0.00 396.85 566.93 cl
0.00 0.00 396.85 566.93 cl
/Font1 findfont 9 s
0.3020 0.3020 0.3020 srgb
79.50 322.99 (No P) 0 ta
-1.080 (AD) tb gr
164.36 322.99 (par) 0 ta
0.360 (tial ) tb gr
177.87 313.49 ( IgA deficiency ) .5 0 t
177.87 303.98 (remains) .5 0 t
259.98 322.99 (complete ) .5 0 t
259.98 313.49 ( IgA deficiency ) .5 0 t
259.98 303.98 ( remains) .5 0 t
342.10 322.99 (Progression of/) .5 0 t
324.34 313.49 (into P) 0 ta
-1.080 (AD) tb gr
0.00 0.00 396.85 566.93 cl
0.00 0.00 396.85 566.93 cl
0.00 0.00 396.85 566.93 cl
0.00 0.00 396.85 566.93 cl
0.00 0.00 396.85 566.93 cl
0.00 0.00 396.85 566.93 cl
0.00 0.00 396.85 566.93 cl
0.00 0.00 396.85 566.93 cl
/Font1 findfont 11 s
0 0 0 srgb
13.38 350.72 (% da) 90 ta
-0.330 (ys 1 or more R) tb
-0.330 (TI symptom present) tb gr
0.00 0.00 396.85 566.93 cl
0.00 0.00 396.85 566.93 cl
0.00 0.00 396.85 566.93 cl
0.00 0.00 396.85 566.93 cl
0.00 0.00 396.85 566.93 cl
0.00 0.00 396.85 566.93 cl
0.00 0.00 396.85 566.93 cl
0.00 0.00 396.85 566.93 cl
0.00 0.00 396.85 566.93 cl
0.00 0.00 396.85 566.93 cl
0.00 0.00 396.85 566.93 cl
0.00 0.00 396.85 566.93 cl
0.00 0.00 396.85 566.93 cl
0.00 0.00 396.85 566.93 cl
0.00 0.00 396.85 566.93 cl
0.00 0.00 396.85 566.93 cl
0.00 0.00 396.85 566.93 cl
0.00 0.00 396.85 566.93 cl
0.00 0.00 396.85 566.93 cl
0.00 0.00 396.85 566.93 cl
0.00 0.00 396.85 566.93 cl
0.00 0.00 396.85 283.46 cl
/bg { 1 1 1 srgb } def
1 1 1 srgb
1.07 setlinewidth
[] 0 setdash
1 setlinecap
1 setlinejoin
10.00 setmiterlimit
0.00 0.00 396.85 283.46 r p3
0.00 0.00 396.85 566.93 cl
41.48 50.92 391.37 277.99 cl
/bg { 1 1 1 srgb } def
41.48 50.92 349.89 227.07 r p2
0.9216 0.9216 0.9216 srgb
0.53 setlinewidth
[] 0 setdash
0 setlinecap
1 setlinejoin
10.00 setmiterlimit
np
41.48 53.70 m
349.89 0 l
o
np
41.48 84.33 m
349.89 0 l
o
np
41.48 145.57 m
349.89 0 l
o
np
41.48 206.82 m
349.89 0 l
o
np
41.48 268.07 m
349.89 0 l
o
1.07 setlinewidth
[] 0 setdash
np
41.48 114.95 m
349.89 0 l
o
np
41.48 176.20 m
349.89 0 l
o
np
41.48 237.45 m
349.89 0 l
o
np
91.46 50.92 m
0 227.07 l
o
np
174.77 50.92 m
0 227.07 l
o
np
258.08 50.92 m
0 227.07 l
o
np
341.39 50.92 m
0 227.07 l
o
/bg { 0 0 0 srgb } def
0 0 0 srgb
0.71 setlinewidth
[] 0 setdash
1 setlinecap
340.13 184.28 1.95 c p3
176.16 141.47 1.95 c p3
176.90 155.69 1.95 c p3
175.67 61.24 1.95 c p3
176.72 150.63 1.95 c p3
254.63 86.39 1.95 c p3
260.62 255.46 1.95 c p3
171.69 117.17 1.95 c p3
171.55 68.73 1.95 c p3
257.65 145.17 1.95 c p3
260.53 100.57 1.95 c p3
172.35 128.45 1.95 c p3
342.03 267.66 1.95 c p3
89.44 96.67 1.95 c p3
341.59 105.15 1.95 c p3
88.31 86.03 1.95 c p3
0.2000 0.2000 0.2000 srgb
1.07 setlinewidth
[] 0 setdash
0 setlinecap
np
91.46 94.06 m
0 2.67 l
o
np
91.46 88.73 m
0 -2.66 l
o
1 setlinecap
np
 60.22 94.06 m
0 -5.33 l
62.48 0 l
0 5.33 l
-62.48 0 l
cp p1
2.13 setlinewidth
[] 0 setdash
0 setlinecap
np
60.22 91.40 m
62.48 0 l
o
1.07 setlinewidth
[] 0 setdash
np
174.77 146.11 m
0 9.67 l
o
np
174.77 93.01 m
0 -31.72 l
o
1 setlinecap
np
 143.53 146.11 m
0 -53.10 l
62.48 0 l
0 53.10 l
-62.48 0 l
cp p1
2.13 setlinewidth
[] 0 setdash
0 setlinecap
np
143.53 128.40 m
62.48 0 l
o
1.07 setlinewidth
[] 0 setdash
np
258.08 172.65 m
0 82.72 l
o
np
258.08 97.05 m
0 -10.72 l
o
1 setlinecap
np
 226.84 172.65 m
0 -75.60 l
62.48 0 l
0 75.60 l
-62.48 0 l
cp p1
2.13 setlinewidth
[] 0 setdash
0 setlinecap
np
226.84 122.85 m
62.48 0 l
o
1.07 setlinewidth
[] 0 setdash
np
341.39 225.91 m
0 41.68 l
o
np
341.39 144.69 m
0 -39.54 l
o
1 setlinecap
np
 310.15 225.91 m
0 -81.22 l
62.48 0 l
0 81.22 l
-62.48 0 l
cp p1
2.13 setlinewidth
[] 0 setdash
0 setlinecap
np
310.15 184.23 m
62.48 0 l
o
1.07 setlinewidth
[] 0 setdash
1 setlinecap
41.48 50.92 349.89 227.07 r p1
0.00 0.00 396.85 566.93 cl
0.00 0.00 396.85 566.93 cl
0.00 0.00 396.85 566.93 cl
0.00 0.00 396.85 566.93 cl
0.00 0.00 396.85 566.93 cl
0.00 0.00 396.85 566.93 cl
0.00 0.00 396.85 566.93 cl
0.00 0.00 396.85 566.93 cl
0.00 0.00 396.85 566.93 cl
0.00 0.00 396.85 566.93 cl
0.00 0.00 396.85 566.93 cl
0.00 0.00 396.85 566.93 cl
0.00 0.00 396.85 566.93 cl
0.00 0.00 396.85 566.93 cl
0.00 0.00 396.85 566.93 cl
0.00 0.00 396.85 566.93 cl
/Font1 findfont 9 s
0.3020 0.3020 0.3020 srgb
36.55 111.72 (20%) 1 0 t
36.55 172.97 (40%) 1 0 t
36.55 234.22 (60%) 1 0 t
0.00 0.00 396.85 566.93 cl
0.00 0.00 396.85 566.93 cl
0.2000 0.2000 0.2000 srgb
1.07 setlinewidth
[] 0 setdash
0 setlinecap
1 setlinejoin
10.00 setmiterlimit
np
38.74 114.95 m
2.74 0 l
o
np
38.74 176.20 m
2.74 0 l
o
np
38.74 237.45 m
2.74 0 l
o
0.00 0.00 396.85 566.93 cl
0.00 0.00 396.85 566.93 cl
0.00 0.00 396.85 566.93 cl
0.00 0.00 396.85 566.93 cl
0.00 0.00 396.85 566.93 cl
0.00 0.00 396.85 566.93 cl
0.00 0.00 396.85 566.93 cl
0.00 0.00 396.85 566.93 cl
0.00 0.00 396.85 566.93 cl
0.00 0.00 396.85 566.93 cl
0.2000 0.2000 0.2000 srgb
1.07 setlinewidth
[] 0 setdash
0 setlinecap
1 setlinejoin
10.00 setmiterlimit
np
91.46 48.18 m
0 2.74 l
o
np
174.77 48.18 m
0 2.74 l
o
np
258.08 48.18 m
0 2.74 l
o
np
341.39 48.18 m
0 2.74 l
o
0.00 0.00 396.85 566.93 cl
0.00 0.00 396.85 566.93 cl
/Font1 findfont 9 s
0.3020 0.3020 0.3020 srgb
75.21 39.53 (No P) 0 ta
-1.080 (AD) tb gr
161.27 39.53 (par) 0 ta
0.360 (tial ) tb gr
174.77 30.02 ( IgA deficiency ) .5 0 t
174.77 20.52 (remains) .5 0 t
258.08 39.53 (complete ) .5 0 t
258.08 30.02 ( IgA deficiency ) .5 0 t
258.08 20.52 ( remains) .5 0 t
341.39 39.53 (Progression of/) .5 0 t
323.63 30.02 (into P) 0 ta
-1.080 (AD) tb gr
0.00 0.00 396.85 566.93 cl
0.00 0.00 396.85 566.93 cl
0.00 0.00 396.85 566.93 cl
0.00 0.00 396.85 566.93 cl
0.00 0.00 396.85 566.93 cl
0.00 0.00 396.85 566.93 cl
0.00 0.00 396.85 566.93 cl
0.00 0.00 396.85 566.93 cl
/Font1 findfont 11 s
0 0 0 srgb
13.38 67.26 (% da) 90 ta
-0.330 (ys 2 or more R) tb
-0.330 (TI symptom present) tb gr
0.00 0.00 396.85 566.93 cl
0.00 0.00 396.85 566.93 cl
0.00 0.00 396.85 566.93 cl
0.00 0.00 396.85 566.93 cl
0.00 0.00 396.85 566.93 cl
0.00 0.00 396.85 566.93 cl
0.00 0.00 396.85 566.93 cl
0.00 0.00 396.85 566.93 cl
0.00 0.00 396.85 566.93 cl
0.00 0.00 396.85 566.93 cl
0.00 0.00 396.85 566.93 cl
0.00 0.00 396.85 566.93 cl
0.00 0.00 396.85 566.93 cl
0.00 0.00 396.85 566.93 cl
0.00 0.00 396.85 566.93 cl
0.00 0.00 396.85 566.93 cl
0.00 0.00 396.85 566.93 cl
0.00 0.00 396.85 566.93 cl
0.00 0.00 396.85 566.93 cl
0.00 0.00 396.85 566.93 cl
0.00 0.00 396.85 566.93 cl
0.00 0.00 396.85 566.93 cl
0.00 0.00 396.85 566.93 cl
0.00 0.00 396.85 566.93 cl
0.00 0.00 396.85 566.93 cl
0.00 0.00 396.85 566.93 cl
0.00 0.00 396.85 566.93 cl
0.00 0.00 396.85 566.93 cl
0.00 0.00 396.85 566.93 cl
0.00 0.00 396.85 566.93 cl
0.00 0.00 396.85 566.93 cl
0.00 0.00 396.85 566.93 cl
0.00 0.00 396.85 566.93 cl
0.00 0.00 396.85 566.93 cl
0.00 0.00 396.85 566.93 cl
0.00 0.00 396.85 566.93 cl
0.00 0.00 396.85 566.93 cl
0.00 0.00 396.85 566.93 cl
0.00 0.00 396.85 566.93 cl
0.00 0.00 396.85 566.93 cl
0.00 0.00 396.85 566.93 cl
0.00 0.00 396.85 566.93 cl
0.00 0.00 396.85 566.93 cl
0.00 0.00 396.85 566.93 cl
0.00 0.00 396.85 566.93 cl
0.00 0.00 396.85 566.93 cl
0.00 0.00 396.85 566.93 cl
0.00 0.00 396.85 566.93 cl
ep
%%Trailer
%%Pages: 1
%%EOF
