%!PS-Adobe-3.0 EPSF-3.0
%%DocumentNeededResources: font Helvetica
%%+ font Helvetica-Bold
%%+ font Helvetica-Oblique
%%+ font Helvetica-BoldOblique
%%+ font Symbol
%%Title: R Graphics Output
%%Creator: R Software
%%Pages: (atend)
%%BoundingBox: 0 0 567 354
%%EndComments
%%BeginProlog
/bp  { gs sRGB gs } def
% begin .ps.prolog
/gs  { gsave } bind def
/gr  { grestore } bind def
/ep  { showpage gr gr } bind def
/m   { moveto } bind def
/l  { rlineto } bind def
/np  { newpath } bind def
/cp  { closepath } bind def
/f   { fill } bind def
/o   { stroke } bind def
/c   { newpath 0 360 arc } bind def
/r   { 4 2 roll moveto 1 copy 3 -1 roll exch 0 exch rlineto 0 rlineto -1 mul 0 exch rlineto closepath } bind def
/p1  { stroke } bind def
/p2  { gsave bg fill grestore newpath } bind def
/p3  { gsave bg fill grestore stroke } bind def
/p6  { gsave bg eofill grestore newpath } bind def
/p7  { gsave bg eofill grestore stroke } bind def
/t   { 5 -2 roll moveto gsave rotate
       1 index stringwidth pop
       mul neg 0 rmoveto show grestore } bind def
/ta  { 4 -2 roll moveto gsave rotate show } bind def
/tb  { 2 -1 roll 0 rmoveto show } bind def
/cl  { grestore gsave newpath 3 index 3 index moveto 1 index
       4 -1 roll lineto  exch 1 index lineto lineto
       closepath clip newpath } bind def
/rgb { setrgbcolor } bind def
/s   { scalefont setfont } bind def
% end   .ps.prolog
/sRGB { [ /CIEBasedABC
          << /DecodeLMN
               [ { dup 0.03928 le
                        {12.92321 div}
                        {0.055 add 1.055 div 2.4 exp }
                     ifelse
                 } bind dup dup
               ]
             /MatrixLMN [0.412457 0.212673 0.019334
                         0.357576 0.715152 0.119192
                         0.180437 0.072175 0.950301]
             /WhitePoint [0.9505 1.0 1.0890]
           >>
         ] setcolorspace } bind def
/srgb { setcolor } bind def
% begin encoding
/WinAnsiEncoding [
 /.notdef /.notdef /.notdef /.notdef /.notdef /.notdef /.notdef /.notdef
 /.notdef /.notdef /.notdef /.notdef /.notdef /.notdef /.notdef /.notdef
 /.notdef /.notdef /.notdef /.notdef /.notdef /.notdef /.notdef /.notdef
 /.notdef /.notdef /.notdef /.notdef /.notdef /.notdef /.notdef /.notdef
 /space /exclam /quotedbl /numbersign /dollar /percent /ampersand /quoteright
 /parenleft /parenright /asterisk /plus /comma /minus /period /slash
 /zero /one /two /three /four /five /six /seven
 /eight /nine /colon /semicolon /less /equal /greater /question
 /at /A /B /C /D /E /F /G
 /H /I /J /K /L /M /N /O
 /P /Q /R /S /T /U /V /W
 /X /Y /Z /bracketleft /backslash /bracketright /asciicircum /underscore
 /grave /a /b /c /d /e /f /g
 /h /i /j /k /l /m /n /o
 /p /q /r /s /t /u /v /w
 /x /y /z /braceleft /bar /braceright /asciitilde /.notdef
 /Euro /.notdef /quotesinglbase /florin /quotedblbase /ellipsis /dagger /daggerdbl
 /circumflex /perthousand /Scaron /guilsinglleft /OE /.notdef /Zcaron /.notdef
 /.notdef /quoteleft /quoteright /quotedblleft /quotedblright /bullet /endash /emdash
 /tilde /trademark /scaron /guilsinglright /oe /.notdef /zcaron /Ydieresis
 /space /exclamdown /cent /sterling /currency /yen /brokenbar /section
 /dieresis /copyright /ordfeminine /guillemotleft /logicalnot /hyphen /registered /macron
 /degree /plusminus /twosuperior /threesuperior /acute /mu /paragraph /periodcentered
 /cedilla /onesuperior /ordmasculine /guillemotright /onequarter /onehalf /threequarters /questiondown
 /Agrave /Aacute /Acircumflex /Atilde /Adieresis /Aring /AE /Ccedilla
 /Egrave /Eacute /Ecircumflex /Edieresis /Igrave /Iacute /Icircumflex /Idieresis
 /Eth /Ntilde /Ograve /Oacute /Ocircumflex /Otilde /Odieresis /multiply
 /Oslash /Ugrave /Uacute /Ucircumflex /Udieresis /Yacute /Thorn /germandbls
 /agrave /aacute /acircumflex /atilde /adieresis /aring /ae /ccedilla
 /egrave /eacute /ecircumflex /edieresis /igrave /iacute /icircumflex /idieresis
 /eth /ntilde /ograve /oacute /ocircumflex /otilde /odieresis /divide
 /oslash /ugrave /uacute /ucircumflex /udieresis /yacute /thorn /ydieresis
]
 def
% end encoding
%%IncludeResource: font Helvetica
/Helvetica findfont
dup length dict begin
  {1 index /FID ne {def} {pop pop} ifelse} forall
  /Encoding WinAnsiEncoding def
  currentdict
  end
/Font1 exch definefont pop
%%IncludeResource: font Helvetica-Bold
/Helvetica-Bold findfont
dup length dict begin
  {1 index /FID ne {def} {pop pop} ifelse} forall
  /Encoding WinAnsiEncoding def
  currentdict
  end
/Font2 exch definefont pop
%%IncludeResource: font Helvetica-Oblique
/Helvetica-Oblique findfont
dup length dict begin
  {1 index /FID ne {def} {pop pop} ifelse} forall
  /Encoding WinAnsiEncoding def
  currentdict
  end
/Font3 exch definefont pop
%%IncludeResource: font Helvetica-BoldOblique
/Helvetica-BoldOblique findfont
dup length dict begin
  {1 index /FID ne {def} {pop pop} ifelse} forall
  /Encoding WinAnsiEncoding def
  currentdict
  end
/Font4 exch definefont pop
%%IncludeResource: font Symbol
/Symbol findfont
dup length dict begin
  {1 index /FID ne {def} {pop pop} ifelse} forall
  currentdict
  end
/Font5 exch definefont pop
%%EndProlog
%%Page: 1 1
bp
/bg { 1 1 1 srgb } def
0.00 0.00 566.93 354.33 r p2
0.00 0.00 566.93 354.33 cl
0.00 0.00 566.93 354.33 cl
0.00 0.00 566.93 354.33 cl
0.00 0.00 566.93 354.33 cl
0.00 0.00 566.93 354.33 cl
0.00 0.00 566.93 354.33 cl
0.00 0.00 566.93 354.33 cl
0.00 0.00 566.93 354.33 cl
0.00 0.00 566.93 354.33 cl
0.00 0.00 566.93 354.33 cl
0.00 0.00 566.93 354.33 cl
0.00 0.00 566.93 354.33 cl
0.00 0.00 566.93 354.33 cl
0.00 0.00 566.93 354.33 cl
0.00 0.00 566.93 354.33 cl
0.00 0.00 566.93 354.33 cl
/bg { 1 1 1 srgb } def
1 1 1 srgb
1.07 setlinewidth
[] 0 setdash
1 setlinecap
1 setlinejoin
10.00 setmiterlimit
0.00 0.00 566.93 354.33 r p3
0.00 0.00 566.93 354.33 cl
46.48 103.50 478.49 348.85 cl
/bg { 1 1 1 srgb } def
46.48 103.50 432.01 245.35 r p2
0.9216 0.9216 0.9216 srgb
0.53 setlinewidth
[] 0 setdash
0 setlinecap
1 setlinejoin
10.00 setmiterlimit
np
46.48 141.21 m
432.01 0 l
o
np
46.48 194.31 m
432.01 0 l
o
np
46.48 247.42 m
432.01 0 l
o
np
46.48 300.52 m
432.01 0 l
o
1.07 setlinewidth
[] 0 setdash
np
46.48 114.65 m
432.01 0 l
o
np
46.48 167.76 m
432.01 0 l
o
np
46.48 220.87 m
432.01 0 l
o
np
46.48 273.97 m
432.01 0 l
o
np
46.48 327.08 m
432.01 0 l
o
np
71.89 103.50 m
0 245.35 l
o
np
114.25 103.50 m
0 245.35 l
o
np
156.60 103.50 m
0 245.35 l
o
np
198.96 103.50 m
0 245.35 l
o
np
241.31 103.50 m
0 245.35 l
o
np
283.66 103.50 m
0 245.35 l
o
np
326.02 103.50 m
0 245.35 l
o
np
368.37 103.50 m
0 245.35 l
o
np
410.73 103.50 m
0 245.35 l
o
np
453.08 103.50 m
0 245.35 l
o
0.2000 0.2000 0.2000 srgb
np
63.95 287.03 m
0 40.05 l
o
np
63.95 200.72 m
0 -59.92 l
o
/bg { 0.2157 0.4941 0.7216 srgb } def
1 setlinecap
np
 56.81 287.03 m
0 -86.31 l
14.29 0 l
0 86.31 l
-14.29 0 l
cp p3
2.13 setlinewidth
[] 0 setdash
0 setlinecap
np
56.81 251.07 m
14.29 0 l
o
1.07 setlinewidth
[] 0 setdash
np
79.84 273.64 m
0 46.53 l
o
np
79.84 202.92 m
0 -61.93 l
o
/bg { 0.8941 0.1020 0.1098 srgb } def
1 setlinecap
np
 72.69 273.64 m
0 -70.72 l
14.29 0 l
0 70.72 l
-14.29 0 l
cp p3
2.13 setlinewidth
[] 0 setdash
0 setlinecap
np
72.69 243.80 m
14.29 0 l
o
1.07 setlinewidth
[] 0 setdash
np
106.31 265.97 m
0 59.38 l
o
np
106.31 167.32 m
0 -52.67 l
o
/bg { 0.2157 0.4941 0.7216 srgb } def
1 setlinecap
np
 99.16 265.97 m
0 -98.65 l
14.29 0 l
0 98.65 l
-14.29 0 l
cp p3
2.13 setlinewidth
[] 0 setdash
0 setlinecap
np
99.16 216.40 m
14.29 0 l
o
1.07 setlinewidth
[] 0 setdash
np
122.19 258.24 m
0 61.99 l
o
np
122.19 167.11 m
0 -38.64 l
o
/bg { 0.8941 0.1020 0.1098 srgb } def
1 setlinecap
np
 115.04 258.24 m
0 -91.13 l
14.30 0 l
0 91.13 l
-14.30 0 l
cp p3
2.13 setlinewidth
[] 0 setdash
0 setlinecap
np
115.04 192.35 m
14.30 0 l
o
1.07 setlinewidth
[] 0 setdash
np
148.66 248.72 m
0 78.36 l
o
np
148.66 160.41 m
0 -45.76 l
o
/bg { 0.2157 0.4941 0.7216 srgb } def
1 setlinecap
np
 141.51 248.72 m
0 -88.31 l
14.30 0 l
0 88.31 l
-14.30 0 l
cp p3
2.13 setlinewidth
[] 0 setdash
0 setlinecap
np
141.51 198.60 m
14.30 0 l
o
1.07 setlinewidth
[] 0 setdash
np
164.54 198.81 m
0 67.58 l
o
np
164.54 145.93 m
0 -27.76 l
o
/bg { 0.8941 0.1020 0.1098 srgb } def
1 setlinecap
np
 157.40 198.81 m
0 -52.88 l
14.29 0 l
0 52.88 l
-14.29 0 l
cp p3
2.13 setlinewidth
[] 0 setdash
0 setlinecap
np
157.40 174.83 m
14.29 0 l
o
/bg { 0.2000 0.2000 0.2000 srgb } def
0.71 setlinewidth
[] 0 setdash
1 setlinecap
191.01 327.08 1.95 c p3
1.07 setlinewidth
[] 0 setdash
0 setlinecap
np
191.01 222.61 m
0 83.57 l
o
np
191.01 154.89 m
0 -40.24 l
o
/bg { 0.2157 0.4941 0.7216 srgb } def
1 setlinecap
np
 183.87 222.61 m
0 -67.72 l
14.29 0 l
0 67.72 l
-14.29 0 l
cp p3
2.13 setlinewidth
[] 0 setdash
0 setlinecap
np
183.87 187.19 m
14.29 0 l
o
1.07 setlinewidth
[] 0 setdash
np
206.90 197.74 m
0 65.27 l
o
np
206.90 147.40 m
0 -27.48 l
o
/bg { 0.8941 0.1020 0.1098 srgb } def
1 setlinecap
np
 199.75 197.74 m
0 -50.34 l
14.29 0 l
0 50.34 l
-14.29 0 l
cp p3
2.13 setlinewidth
[] 0 setdash
0 setlinecap
np
199.75 175.59 m
14.29 0 l
o
/bg { 0.2000 0.2000 0.2000 srgb } def
0.71 setlinewidth
[] 0 setdash
1 setlinecap
233.37 193.01 1.95 c p3
1.07 setlinewidth
[] 0 setdash
0 setlinecap
np
233.37 142.29 m
0 21.12 l
o
np
233.37 114.65 m
0 0 l
o
/bg { 0.2157 0.4941 0.7216 srgb } def
1 setlinecap
np
 226.22 142.29 m
0 -27.64 l
14.30 0 l
0 27.64 l
-14.30 0 l
cp p3
2.13 setlinewidth
[] 0 setdash
0 setlinecap
np
226.22 121.62 m
14.30 0 l
o
/bg { 0.2000 0.2000 0.2000 srgb } def
0.71 setlinewidth
[] 0 setdash
1 setlinecap
249.25 201.71 1.95 c p3
249.25 175.35 1.95 c p3
249.25 255.04 1.95 c p3
1.07 setlinewidth
[] 0 setdash
0 setlinecap
np
249.25 135.41 m
0 22.07 l
o
np
249.25 116.35 m
0 -1.70 l
o
/bg { 0.8941 0.1020 0.1098 srgb } def
1 setlinecap
np
 242.10 135.41 m
0 -19.06 l
14.30 0 l
0 19.06 l
-14.30 0 l
cp p3
2.13 setlinewidth
[] 0 setdash
0 setlinecap
np
242.10 122.49 m
14.30 0 l
o
/bg { 0.2000 0.2000 0.2000 srgb } def
0.71 setlinewidth
[] 0 setdash
1 setlinecap
275.72 199.62 1.95 c p3
275.72 169.22 1.95 c p3
1.07 setlinewidth
[] 0 setdash
0 setlinecap
np
275.72 135.38 m
0 20.39 l
o
np
275.72 118.38 m
0 -3.73 l
o
/bg { 0.2157 0.4941 0.7216 srgb } def
1 setlinecap
np
 268.58 135.38 m
0 -17.00 l
14.29 0 l
0 17.00 l
-14.29 0 l
cp p3
2.13 setlinewidth
[] 0 setdash
0 setlinecap
np
268.58 123.36 m
14.29 0 l
o
/bg { 0.2000 0.2000 0.2000 srgb } def
0.71 setlinewidth
[] 0 setdash
1 setlinecap
291.61 196.49 1.95 c p3
1.07 setlinewidth
[] 0 setdash
0 setlinecap
np
291.61 141.19 m
0 26.57 l
o
np
291.61 119.26 m
0 -4.61 l
o
/bg { 0.8941 0.1020 0.1098 srgb } def
1 setlinecap
np
 284.46 141.19 m
0 -21.93 l
14.29 0 l
0 21.93 l
-14.29 0 l
cp p3
2.13 setlinewidth
[] 0 setdash
0 setlinecap
np
284.46 124.27 m
14.29 0 l
o
/bg { 0.2000 0.2000 0.2000 srgb } def
0.71 setlinewidth
[] 0 setdash
1 setlinecap
318.08 212.16 1.95 c p3
318.08 160.83 1.95 c p3
318.08 181.92 1.95 c p3
1.07 setlinewidth
[] 0 setdash
0 setlinecap
np
318.08 133.81 m
0 25.38 l
o
np
318.08 116.50 m
0 -1.85 l
o
/bg { 0.2157 0.4941 0.7216 srgb } def
1 setlinecap
np
 310.93 133.81 m
0 -17.31 l
14.29 0 l
0 17.31 l
-14.29 0 l
cp p3
2.13 setlinewidth
[] 0 setdash
0 setlinecap
np
310.93 121.56 m
14.29 0 l
o
/bg { 0.2000 0.2000 0.2000 srgb } def
0.71 setlinewidth
[] 0 setdash
1 setlinecap
333.96 160.54 1.95 c p3
333.96 183.78 1.95 c p3
333.96 164.33 1.95 c p3
333.96 157.48 1.95 c p3
1.07 setlinewidth
[] 0 setdash
0 setlinecap
np
333.96 132.07 m
0 14.45 l
o
np
333.96 115.95 m
0 -1.30 l
o
/bg { 0.8941 0.1020 0.1098 srgb } def
1 setlinecap
np
 326.81 132.07 m
0 -16.12 l
14.30 0 l
0 16.12 l
-14.30 0 l
cp p3
2.13 setlinewidth
[] 0 setdash
0 setlinecap
np
326.81 122.81 m
14.30 0 l
o
/bg { 0.2000 0.2000 0.2000 srgb } def
0.71 setlinewidth
[] 0 setdash
1 setlinecap
360.43 194.08 1.95 c p3
360.43 149.19 1.95 c p3
360.43 175.60 1.95 c p3
360.43 163.81 1.95 c p3
360.43 169.47 1.95 c p3
1.07 setlinewidth
[] 0 setdash
0 setlinecap
np
360.43 127.47 m
0 2.85 l
o
np
360.43 114.65 m
0 0 l
o
/bg { 0.2157 0.4941 0.7216 srgb } def
1 setlinecap
np
 353.28 127.47 m
0 -12.82 l
14.30 0 l
0 12.82 l
-14.30 0 l
cp p3
2.13 setlinewidth
[] 0 setdash
0 setlinecap
np
353.28 116.41 m
14.30 0 l
o
/bg { 0.2000 0.2000 0.2000 srgb } def
0.71 setlinewidth
[] 0 setdash
1 setlinecap
376.31 214.85 1.95 c p3
376.31 162.62 1.95 c p3
1.07 setlinewidth
[] 0 setdash
0 setlinecap
np
376.31 132.03 m
0 15.98 l
o
np
376.31 114.65 m
0 0 l
o
/bg { 0.8941 0.1020 0.1098 srgb } def
1 setlinecap
np
 369.17 132.03 m
0 -17.38 l
14.29 0 l
0 17.38 l
-14.29 0 l
cp p3
2.13 setlinewidth
[] 0 setdash
0 setlinecap
np
369.17 119.81 m
14.29 0 l
o
/bg { 0.2000 0.2000 0.2000 srgb } def
0.71 setlinewidth
[] 0 setdash
1 setlinecap
402.79 205.20 1.95 c p3
402.79 197.85 1.95 c p3
1.07 setlinewidth
[] 0 setdash
0 setlinecap
np
402.79 131.79 m
0 22.59 l
o
np
402.79 116.37 m
0 -1.72 l
o
/bg { 0.2157 0.4941 0.7216 srgb } def
1 setlinecap
np
 395.64 131.79 m
0 -15.42 l
14.29 0 l
0 15.42 l
-14.29 0 l
cp p3
2.13 setlinewidth
[] 0 setdash
0 setlinecap
np
395.64 119.79 m
14.29 0 l
o
/bg { 0.2000 0.2000 0.2000 srgb } def
0.71 setlinewidth
[] 0 setdash
1 setlinecap
418.67 139.44 1.95 c p3
418.67 203.74 1.95 c p3
418.67 163.41 1.95 c p3
1.07 setlinewidth
[] 0 setdash
0 setlinecap
np
418.67 122.54 m
0 10.96 l
o
np
418.67 114.65 m
0 0 l
o
/bg { 0.8941 0.1020 0.1098 srgb } def
1 setlinecap
np
 411.52 122.54 m
0 -7.89 l
14.30 0 l
0 7.89 l
-14.30 0 l
cp p3
2.13 setlinewidth
[] 0 setdash
0 setlinecap
np
411.52 116.53 m
14.30 0 l
o
1.07 setlinewidth
[] 0 setdash
np
445.14 119.79 m
0 6.95 l
o
np
445.14 114.65 m
0 0 l
o
/bg { 0.2157 0.4941 0.7216 srgb } def
1 setlinecap
np
 437.99 119.79 m
0 -5.14 l
14.30 0 l
0 5.14 l
-14.30 0 l
cp p3
2.13 setlinewidth
[] 0 setdash
0 setlinecap
np
437.99 118.08 m
14.30 0 l
o
/bg { 0.2000 0.2000 0.2000 srgb } def
0.71 setlinewidth
[] 0 setdash
1 setlinecap
461.02 124.14 1.95 c p3
461.02 130.32 1.95 c p3
461.02 123.89 1.95 c p3
461.02 128.68 1.95 c p3
1.07 setlinewidth
[] 0 setdash
0 setlinecap
np
461.02 118.14 m
0 3.37 l
o
np
461.02 114.65 m
0 0 l
o
/bg { 0.8941 0.1020 0.1098 srgb } def
1 setlinecap
np
 453.87 118.14 m
0 -3.49 l
14.30 0 l
0 3.49 l
-14.30 0 l
cp p3
2.13 setlinewidth
[] 0 setdash
0 setlinecap
np
453.87 116.36 m
14.30 0 l
o
1.07 setlinewidth
[] 0 setdash
1 setlinecap
46.48 103.50 432.01 245.35 r p1
0.00 0.00 566.93 354.33 cl
0.00 0.00 566.93 354.33 cl
0.00 0.00 566.93 354.33 cl
0.00 0.00 566.93 354.33 cl
0.00 0.00 566.93 354.33 cl
0.00 0.00 566.93 354.33 cl
0.00 0.00 566.93 354.33 cl
0.00 0.00 566.93 354.33 cl
0.00 0.00 566.93 354.33 cl
0.00 0.00 566.93 354.33 cl
0.00 0.00 566.93 354.33 cl
0.00 0.00 566.93 354.33 cl
0.00 0.00 566.93 354.33 cl
0.00 0.00 566.93 354.33 cl
0.00 0.00 566.93 354.33 cl
0.00 0.00 566.93 354.33 cl
/Font1 findfont 9 s
0.3020 0.3020 0.3020 srgb
41.55 111.42 (0%) 1 0 t
41.55 164.53 (25%) 1 0 t
41.55 217.63 (50%) 1 0 t
41.55 270.74 (75%) 1 0 t
41.55 323.85 (100%) 1 0 t
0.00 0.00 566.93 354.33 cl
0.00 0.00 566.93 354.33 cl
0.2000 0.2000 0.2000 srgb
1.07 setlinewidth
[] 0 setdash
0 setlinecap
1 setlinejoin
10.00 setmiterlimit
np
43.74 114.65 m
2.74 0 l
o
np
43.74 167.76 m
2.74 0 l
o
np
43.74 220.87 m
2.74 0 l
o
np
43.74 273.97 m
2.74 0 l
o
np
43.74 327.08 m
2.74 0 l
o
0.00 0.00 566.93 354.33 cl
0.00 0.00 566.93 354.33 cl
0.00 0.00 566.93 354.33 cl
0.00 0.00 566.93 354.33 cl
0.00 0.00 566.93 354.33 cl
0.00 0.00 566.93 354.33 cl
0.00 0.00 566.93 354.33 cl
0.00 0.00 566.93 354.33 cl
0.00 0.00 566.93 354.33 cl
0.00 0.00 566.93 354.33 cl
0.2000 0.2000 0.2000 srgb
1.07 setlinewidth
[] 0 setdash
0 setlinecap
1 setlinejoin
10.00 setmiterlimit
np
71.89 100.76 m
0 2.74 l
o
np
114.25 100.76 m
0 2.74 l
o
np
156.60 100.76 m
0 2.74 l
o
np
198.96 100.76 m
0 2.74 l
o
np
241.31 100.76 m
0 2.74 l
o
np
283.66 100.76 m
0 2.74 l
o
np
326.02 100.76 m
0 2.74 l
o
np
368.37 100.76 m
0 2.74 l
o
np
410.73 100.76 m
0 2.74 l
o
np
453.08 100.76 m
0 2.74 l
o
0.00 0.00 566.93 354.33 cl
0.00 0.00 566.93 354.33 cl
/Font1 findfont 9 s
0.3020 0.3020 0.3020 srgb
2.21 19.75 (1 or more R) 45.00 ta
-0.270 (TI symptom\(s\)) tb gr
48.80 23.98 (2 or more R) 45.00 ta
-0.270 (TI symptoms) tb gr
161.17 94.00 (Rhinitis) 1 45.00 t
203.53 94.00 (Cough) 1 45.00 t
245.88 94.00 (Otitis) 1 45.00 t
288.23 94.00 (Malaise) 1 45.00 t
314.32 77.73 (F) 45.00 ta
-0.270 (e) tb
-0.270 (v) tb
-0.225 (er) tb gr
372.94 94.00 (Diarrhea) 1 45.00 t
415.30 94.00 (Sore throat) 1 45.00 t
432.89 69.25 (V) 45.00 ta
-0.720 (omiting) tb gr
0.00 0.00 566.93 354.33 cl
0.00 0.00 566.93 354.33 cl
0.00 0.00 566.93 354.33 cl
0.00 0.00 566.93 354.33 cl
0.00 0.00 566.93 354.33 cl
0.00 0.00 566.93 354.33 cl
/Font1 findfont 11 s
0 0 0 srgb
262.49 7.90 (Symptom) .5 0 t
0.00 0.00 566.93 354.33 cl
0.00 0.00 566.93 354.33 cl
/Font1 findfont 11 s
0 0 0 srgb
13.38 123.16 (P) 90 ta
-0.550 (ercentage of total da) tb
-0.330 (ys symptom present) tb gr
0.00 0.00 566.93 354.33 cl
0.00 0.00 566.93 354.33 cl
0.00 0.00 566.93 354.33 cl
0.00 0.00 566.93 354.33 cl
0.00 0.00 566.93 354.33 cl
0.00 0.00 566.93 354.33 cl
0.00 0.00 566.93 354.33 cl
0.00 0.00 566.93 354.33 cl
/bg { 1 1 1 srgb } def
489.45 195.52 72.00 61.32 r p2
0.00 0.00 566.93 354.33 cl
0.00 0.00 566.93 354.33 cl
0.00 0.00 566.93 354.33 cl
0.00 0.00 566.93 354.33 cl
/Font1 findfont 11 s
0 0 0 srgb
494.93 242.25 (P) 0 ta
-1.320 (AD present) tb gr
0.00 0.00 566.93 354.33 cl
0.00 0.00 566.93 354.33 cl
0.00 0.00 566.93 354.33 cl
/bg { 1 1 1 srgb } def
494.93 218.28 17.28 17.28 r p2
0.00 0.00 566.93 354.33 cl
0.00 0.00 566.93 354.33 cl
0.2000 0.2000 0.2000 srgb
1.07 setlinewidth
[] 0 setdash
1 setlinecap
1 setlinejoin
10.00 setmiterlimit
np
503.57 220.01 m
0 2.59 l
o
np
503.57 231.24 m
0 2.59 l
o
/bg { 0.2157 0.4941 0.7216 srgb } def
497.09 222.60 12.96 8.64 r p3
np
497.09 226.92 m
12.96 0 l
o
0.00 0.00 566.93 354.33 cl
0.00 0.00 566.93 354.33 cl
/bg { 1 1 1 srgb } def
494.93 201.00 17.28 17.28 r p2
0.00 0.00 566.93 354.33 cl
0.00 0.00 566.93 354.33 cl
0.2000 0.2000 0.2000 srgb
1.07 setlinewidth
[] 0 setdash
1 setlinecap
1 setlinejoin
10.00 setmiterlimit
np
503.57 202.73 m
0 2.59 l
o
np
503.57 213.96 m
0 2.59 l
o
/bg { 0.8941 0.1020 0.1098 srgb } def
497.09 205.32 12.96 8.64 r p3
np
497.09 209.64 m
12.96 0 l
o
0.00 0.00 566.93 354.33 cl
0.00 0.00 566.93 354.33 cl
0.00 0.00 566.93 354.33 cl
0.00 0.00 566.93 354.33 cl
/Font1 findfont 9 s
0 0 0 srgb
517.69 223.69 (No P) 0 ta
-1.080 (AD) tb gr
0.00 0.00 566.93 354.33 cl
0.00 0.00 566.93 354.33 cl
0.00 0.00 566.93 354.33 cl
0.00 0.00 566.93 354.33 cl
0.00 0.00 566.93 354.33 cl
/Font1 findfont 9 s
0 0 0 srgb
517.69 206.41 (P) 0 ta
-1.080 (AD) tb gr
0.00 0.00 566.93 354.33 cl
0.00 0.00 566.93 354.33 cl
0.00 0.00 566.93 354.33 cl
0.00 0.00 566.93 354.33 cl
0.00 0.00 566.93 354.33 cl
0.00 0.00 566.93 354.33 cl
0.00 0.00 566.93 354.33 cl
0.00 0.00 566.93 354.33 cl
0.00 0.00 566.93 354.33 cl
0.00 0.00 566.93 354.33 cl
0.00 0.00 566.93 354.33 cl
0.00 0.00 566.93 354.33 cl
0.00 0.00 566.93 354.33 cl
ep
%%Trailer
%%Pages: 1
%%EOF
